Biking and Walking
…
## # A tibble: 3 x 12
##   city_size count num_cities avg_bike sd_bike has_data_bike avg_walk
##   <chr>     <int>      <int>    <dbl>   <dbl>         <int>    <dbl>
## 1 Large       109        109    0.952    1.04           109     3.44
## 2 Medium      176        171    0.880    1.50           176     3.01
## 3 Small      1465       1352    0.632    1.16          1463     2.85
## #  with 5 more variables: sd_walk <dbl>, has_data_walk <int>,
## #   avg_bike_walk <dbl>, sd_bike_walk <dbl>, has_data_bike_walk <int>

commute_mode_wider %>% group_by(city) %>% 
  totalize_commutes() %>% arrange(desc(count))

## # A tibble: 1,579 x 12
##    city  count num_cities avg_bike sd_bike has_data_bike avg_walk sd_walk
##    <chr> <int>      <int>    <dbl>   <dbl>         <int>    <dbl>   <dbl>
##  1 Colu     5          1    0.4     0.245             5     2.44   1.46 
##  2 Spri     5          1    0.76    0.856             5     3.4    0.834
##  3 Aubu     4          1    0.8     0.804             4     4.08   1.70 
##  4 Gree     4          1    0.2     0.183             4     3.5    1.91 
##  5 Lafa     4          1    0.725   0.310             4     1.98   0.499
##  6 Lake     4          1    0.625   0.126             4     2.4    0.887
##  7 Lanc     4          1    0.275   0.359             4     3.9    4.81 
##  8 Newa     4          1    0.9     1.01              4     6.12   6.22 
##  9 Rich     4          1    1.25    0.874             4     3.8    1.53 
## 10 Alba     3          1    0.833   0.503             3     5.87   3.50 
## #  with 1,569 more rows, and 4 more variables: has_data_walk <int>,
## #   avg_bike_walk <dbl>, sd_bike_walk <dbl>, has_data_bike_walk <int>

commute_mode_wider %>% group_by(city, state) %>% 
  totalize_commutes() %>% arrange(desc(count), city)

## # A tibble: 1,750 x 13
## # Groups:   city [1,579]
##    city  state count num_cities avg_bike sd_bike has_data_bike avg_walk
##    <chr> <chr> <int>      <int>    <dbl>   <dbl>         <int>    <dbl>
##  1 Aber Sout     1          1      0.8      NA             1      4.4
##  2 Abil Texas     1          1      0.4      NA             1      3.2
##  3 Acwo Geor     1          1      0        NA             1      1.1
##  4 Addi Illi     1          1      0.2      NA             1      0.8
##  5 Adel Cali     1          1      0        NA             1      0.5
##  6 Adri Mich     1          1      1.5      NA             1     11.8
##  7 Agaw Mass     1          1      0        NA             1      1.6
##  8 Agou Cali     1          1      0.8      NA             1      2.2
##  9 Aike Sout     1          1      0.2      NA             1      2.7
## 10 Akro Ohio      1          1      0.2      NA             1      2.8
## #  with 1,740 more rows, and 5 more variables: sd_walk <dbl>,
## #   has_data_walk <int>, avg_bike_walk <dbl>, sd_bike_walk <dbl>,
## #   has_data_bike_walk <int>

commute_mode_wider %>% group_by(state) %>% 
  totalize_commutes() %>% arrange(num_cities)

## # A tibble: 53 x 12
##    state count num_cities avg_bike sd_bike has_data_bike avg_walk sd_walk
##    <chr> <int>      <int>    <dbl>   <dbl>         <int>    <dbl>   <dbl>
##  1 Ca        1          1    0.5    NA                 1   NaN      NA   
##  2 Dist     1          1    3.1    NA                 1    12.1    NA   
##  3 Hawa     1          1    1.8    NA                 1     9      NA   
##  4 Mass     1          1    0.2    NA                 1   NaN      NA   
##  5 Verm     1          1    5      NA                 1    20.3    NA   
##  6 Alas     3          3    1.43    0.416             3     5.03    2.77
##  7 Dela     3          3    0.933   1.27              3     8.53    4.98
##  8 Nort     5          5    0.78    0.466             5     2.86    1.36
##  9 Sout     5          5    1.2     1.41              5     3.7     3.19
## 10 West     5          5    0.48    0.356             5     7.88    5.94
## #  with 43 more rows, and 4 more variables: has_data_walk <int>,
## #   avg_bike_walk <dbl>, sd_bike_walk <dbl>, has_data_bike_walk <int>
…
commute_mode_wider %>% group_by(city_size) %>% 
  totalize_commutes() 

## # A tibble: 3 x 8
##   city_size num_cities avg_bike sd_bike avg_walk sd_walk avg_bike_walk
##   <chr>          <int>    <dbl>   <dbl>    <dbl>   <dbl>         <dbl>
## 1 Large            109    0.952    1.04     3.44    2.69          4.39
## 2 Medium           176    0.880    1.50     3.01    3.12          3.89
## 3 Small           1463    0.632    1.16     2.85    3.58          3.48
## #  with 1 more variable: sd_bike_walk <dbl>

commute_mode_wider %>% group_by(state) %>% 
  totalize_commutes() %>% arrange(num_cities)

## # A tibble: 51 x 8
##    state num_cities avg_bike sd_bike avg_walk sd_walk avg_bike_walk
##    <chr>      <int>    <dbl>   <dbl>    <dbl>   <dbl>         <dbl>
##  1 Dist          1    3.1    NA        12.1    NA            15.2 
##  2 Hawa          1    1.8    NA         9      NA            10.8 
##  3 Verm          1    5      NA        20.3    NA            25.3 
##  4 Alas          3    1.43    0.416     5.03    2.77          6.47
##  5 Dela          3    0.933   1.27      8.53    4.98          9.47
##  6 Nort          5    0.78    0.466     2.86    1.36          3.64
##  7 Sout          5    1.2     1.41      3.7     3.19          4.9 
##  8 West          5    0.48    0.356     7.88    5.94          8.36
##  9 Wyom          5    1.7     2.86      3.38    3.27          5.08
## 10 Maine          6    0.817   0.564     6.5     3.60          7.32
## #  with 41 more rows, and 1 more variable: sd_bike_walk <dbl>
…
filter(commute_wide_pop, city_size == "Medium" & is.na(population))

## # A tibble: 2 x 9
##   city_state state city_size state_abb state_region  bike  walk bike_walk
##   <chr>      <chr> <chr>     <chr>     <chr>        <dbl> <dbl>     <dbl>
## 1 Erie city Penn Medium    PA        Northeast      0.6   4.9       5.5
## 2 Flint cit Mich Medium    MI        North Centr   0.2   2.6       2.8
## #  with 1 more variable: population <dbl>

filter(commute_wide_pop, city_size == "Small" & !is.na(population))

## # A tibble: 23 x 9
##    city_state state city_size state_abb state_region  bike  walk bike_walk
##    <chr>      <chr> <chr>     <chr>     <chr>        <dbl> <dbl>     <dbl>
##  1 Allen cit Texas Small     TX        South          0     0.6       0.6
##  2 Clovis ci Cali Small     CA        West           0.4   1.4       1.8
##  3 College S Texas Small     TX        South          2.6   5.5       8.1
##  4 Davie tow Flor Small     FL        South          0.5   1.1       1.6
##  5 Greeley c Colo Small     CO        West           1.8   3.4       5.2
##  6 Hillsboro Oreg Small     OR        West           1.3   3.2       4.5
##  7 Jurupa Va Cali Small     CA        West           0.2   1.5       1.7
##  8 Lakeland  Flor Small     FL        South          0.5   2.2       2.7
##  9 League Ci Texas Small     TX        South          0.2   0.5       0.7
## 10 Lewisvill Texas Small     TX        South          0.6   0.9       1.5
## #  with 13 more rows, and 1 more variable: population <dbl>
…
