Seattle Pet Names
…
seattle_pets %>% group_by(animals_name) %>%
  summarize(dogs = sum(species == "Dog"),
            cats = sum(species == "Cat"),
            total = dogs + cats) %>%
  arrange(desc(total))

## # A tibble: 13,930 x 4
##    animals_name  dogs  cats total
##    <chr>        <int> <int> <int>
##  1 <NA>            76   406   482
##  2 Lucy           337   102   439
##  3 Charlie        306    81   387
##  4 Luna           244   111   355
##  5 Bella          249    82   331
##  6 Max            186    83   269
##  7 Daisy          221    40   261
##  8 Molly          186    54   240
##  9 Jack           167    65   232
## 10 Lily           146    86   232
## #  with 13,920 more rows
…
